%YAML 1.1
%TAG !u! tag:unity3d.com,2011:
--- !u!1045 &1
EditorBuildSettings:
  m_ObjectHideFlags: 0
  serializedVersion: 2
  m_Scenes: []
  m_configObjects:
    Unity.XR.OpenVR.Settings: {fileID: 11400000, guid: 531db86852a446b429daccc46647e344, type: 2}
    com.unity.xr.management.loader_settings: {fileID: 11400000, guid: 76b2ce44310175847b4489e6bb931c16, type: 2}
